<?xml version="1.0" encoding="UTF-8"?>
<model ref="r:f5950550-3a40-43d0-9f7b-e7f55b2b0b8d(NewLanguage.constraints)">
  <persistence version="9" />
  <languages>
    <use id="3f4bc5f5-c6c1-4a28-8b10-c83066ffa4a1" name="jetbrains.mps.lang.constraints" version="2" />
    <devkit ref="2677cb18-f558-4e33-bc38-a5139cee06dc(jetbrains.mps.devkit.language-design)" />
  </languages>
  <imports />
  <registry />
</model>

