<?xml version="1.0" encoding="UTF-8"?>
<model ref="r:1b43528b-89a0-418d-82c4-c1efabc128b0(NewLanguage.editor)">
  <persistence version="9" />
  <languages>
    <use id="18bc6592-03a6-4e29-a83a-7ff23bde13ba" name="jetbrains.mps.lang.editor" version="7" />
    <devkit ref="2677cb18-f558-4e33-bc38-a5139cee06dc(jetbrains.mps.devkit.language-design)" />
  </languages>
  <imports>
    <import index="kssj" ref="r:2b518cf2-46ce-4a18-8c4c-feee974456c7(NewLanguage.structure)" implicit="true" />
    <import index="tpch" ref="r:00000000-0000-4000-0000-011c8959028d(jetbrains.mps.lang.structure.editor)" implicit="true" />
    <import index="tpck" ref="r:00000000-0000-4000-0000-011c89590288(jetbrains.mps.lang.core.structure)" implicit="true" />
  </imports>
  <registry>
    <language id="18bc6592-03a6-4e29-a83a-7ff23bde13ba" name="jetbrains.mps.lang.editor">
      <concept id="1071666914219" name="jetbrains.mps.lang.editor.structure.ConceptEditorDeclaration" flags="ig" index="24kQdi" />
      <concept id="1237303669825" name="jetbrains.mps.lang.editor.structure.CellLayout_Indent" flags="nn" index="l2Vlx" />
      <concept id="1237307900041" name="jetbrains.mps.lang.editor.structure.IndentLayoutIndentStyleClassItem" flags="ln" index="lj46D" />
      <concept id="1237308012275" name="jetbrains.mps.lang.editor.structure.IndentLayoutNewLineStyleClassItem" flags="ln" index="ljvvj" />
      <concept id="1080736578640" name="jetbrains.mps.lang.editor.structure.BaseEditorComponent" flags="ig" index="2wURMF">
        <child id="1080736633877" name="cellModel" index="2wV5jI" />
      </concept>
      <concept id="1186414536763" name="jetbrains.mps.lang.editor.structure.BooleanStyleSheetItem" flags="ln" index="VOi$J">
        <property id="1186414551515" name="flag" index="VOm3f" />
      </concept>
      <concept id="1381004262292414836" name="jetbrains.mps.lang.editor.structure.ICellStyle" flags="ng" index="1k5N5V">
        <reference id="1381004262292426837" name="parentStyleClass" index="1k5W1q" />
      </concept>
      <concept id="1139848536355" name="jetbrains.mps.lang.editor.structure.CellModel_WithRole" flags="ng" index="1$h60E">
        <reference id="1140103550593" name="relationDeclaration" index="1NtTu8" />
      </concept>
      <concept id="1073389446423" name="jetbrains.mps.lang.editor.structure.CellModel_Collection" flags="sn" stub="3013115976261988961" index="3EZMnI">
        <child id="1106270802874" name="cellLayout" index="2iSdaV" />
        <child id="1073389446424" name="childCellModel" index="3EZMnx" />
      </concept>
      <concept id="1073389577006" name="jetbrains.mps.lang.editor.structure.CellModel_Constant" flags="sn" stub="3610246225209162225" index="3F0ifn">
        <property id="1073389577007" name="text" index="3F0ifm" />
      </concept>
      <concept id="1073389658414" name="jetbrains.mps.lang.editor.structure.CellModel_Property" flags="sg" stub="730538219796134133" index="3F0A7n" />
      <concept id="1219418625346" name="jetbrains.mps.lang.editor.structure.IStyleContainer" flags="ng" index="3F0Thp">
        <child id="1219418656006" name="styleItem" index="3F10Kt" />
      </concept>
      <concept id="1166049232041" name="jetbrains.mps.lang.editor.structure.AbstractComponent" flags="ng" index="1XWOmA">
        <reference id="1166049300910" name="conceptDeclaration" index="1XX52x" />
      </concept>
    </language>
  </registry>
  <node concept="24kQdi" id="RHuA0X$_Yk">
    <ref role="1XX52x" to="kssj:RHuA0X$$zC" resolve="iterate" />
    <node concept="3EZMnI" id="RHuA0X$_Zn" role="2wV5jI">
      <node concept="3F0ifn" id="RHuA0X$_Zp" role="3EZMnx">
        <property role="3F0ifm" value="loop" />
        <ref role="1k5W1q" to="tpch:24YP6ZDyde4" resolve="Keyword" />
      </node>
      <node concept="l2Vlx" id="RHuA0X$_Zq" role="2iSdaV" />
      <node concept="3F0A7n" id="RHuA0X$_ZA" role="3EZMnx">
        <ref role="1NtTu8" to="tpck:h0TrG11" resolve="name" />
        <node concept="ljvvj" id="RHuA0X$_ZG" role="3F10Kt">
          <property role="VOm3f" value="true" />
        </node>
      </node>
      <node concept="3F0A7n" id="RHuA0X$A02" role="3EZMnx">
        <ref role="1NtTu8" to="kssj:RHuA0X$$$4" resolve="body" />
        <node concept="lj46D" id="RHuA0X$G09" role="3F10Kt">
          <property role="VOm3f" value="true" />
        </node>
      </node>
    </node>
  </node>
</model>

